…
Provide an outcome.

Contrast this topological assessment across all papers with the specific ten simple rules for simple rules paper. Consider using a checklist to score each and every contribution published to date with the proposed meta-rules (original and these).

Data

library(tidyverse)
library(skimr)
data <- read_csv("data/ten.simple.rules.scored.csv") #bibliometric returns from the Web of Science on June 25th, 2018

data <- data %>%
  select(title, authors, journal, year, DOI, total.citations, citations.yr, category, views, shares, saves)
data

## # A tibble: 99 x 11
##    title authors journal  year DOI   total.citations citations.yr category
##    <chr> <chr>   <chr>   <int> <chr>           <int>        <dbl> <chr>   
##  1 Ten  Bourne PLOS C  2005 10.1              19         1.36 research
##  2 Ten  Bourne PLOS C  2006 10.1              13         1    communi
##  3 Ten  Bourne PLOS C  2006 10.1               8         0.62 profess
##  4 Ten  Bourne PLOS C  2006 10.1               0         0    profess
##  5 Ten  Bourne PLOS C  2006 10.1              21         1.62 research
##  6 Ten  Vicens PLOS C  2007 10.1              19         1.58 collabo
##  7 Ten  Erren, PLOS C  2007 10.1              24         2    communi
##  8 Ten  Bourne PLOS C  2007 10.1              17         1.42 communi
##  9 Ten  Grosch PLOS C  2007 10.1               2         0.17 communi
## 10 Ten  Erren, PLOS C  2007 10.1               9         0.75 research
## # ... with 89 more rows, and 3 more variables: views <int>, shares <int>,
## #   saves <int>
…
#quick count within categories####
#Categories were assigned to general domains of the scientific process using the abstracts and familiarity with each publication (but not with detailed inspection). A secondary classification was also applicable in many instances, and the assignments provided were the primary focus of the paper - i.e. collaboration in a specific field would be classified as collaboration only using this schema.

cats <- data %>%
  group_by(year, category) %>%
  count()
cats

## # A tibble: 57 x 3
## # Groups:   year, category [57]
##     year category                     n
##    <int> <chr>                    <int>
##  1  2005 research                     1
##  2  2006 communication                1
##  3  2006 professional development     2
##  4  2006 research                     1
##  5  2007 collaboration                1
##  6  2007 communication                3
##  7  2007 research                     2
##  8  2008 collaboration                1
##  9  2008 research                     1
## 10  2008 statistics                   1
## # ... with 47 more rows
…
